%YAML 1.1
%TAG !u! tag:unity3d.com,2011:
--- !u!1045 &1
EditorBuildSettings:
  m_ObjectHideFlags: 0
  serializedVersion: 2
  m_Scenes:
  - enabled: 1
    path: Assets/Scenes/LOL1.unity
    guid: 2cda990e2423bbf4892e6590ba056729
  - enabled: 1
    path: Assets/Scenes/LVL2.unity
    guid: f30e7e3c80998344c8b7a1fdddfb8bef
  - enabled: 1
    path: Assets/Scenes/LVL3.unity
    guid: 609157335bd86a24d96b004993765193
  m_configObjects: {}
